module gitlab.com/NateSchreiner/term-todo

go 1.19

require (
	github.com/DavidGamba/go-getoptions v0.27.0 // indirect
	github.com/alexeyco/simpletable v1.0.0 // indirect
	github.com/gdamore/encoding v1.0.0 // indirect
	github.com/gdamore/tcell/v2 v2.6.0 // indirect
	github.com/lucasb-eyer/go-colorful v1.2.0 // indirect
	github.com/mattn/go-runewidth v0.0.14 // indirect
	github.com/rivo/tview v0.0.0-20230621164836-6cc0565babaf // indirect
	github.com/rivo/uniseg v0.4.4 // indirect
	golang.org/x/sys v0.5.0 // indirect
	golang.org/x/term v0.5.0 // indirect
	golang.org/x/text v0.7.0 // indirect
)
